Penguin walk I
…
gentooObs %>% group_by(site_id, count_type) %>% count() %>% arrange(desc(n))

## Source: local data frame [144 x 3]
## Groups: site_id [105]
## 
## # A tibble: 144 x 3
##    site_id count_type     n
##     <fctr>     <fctr> <int>
##  1    JOUG      nests    39
##  2    LLAN      nests    39
##  3    NEKO      nests    36
##  4    ALMI      nests    25
##  5    BROW      nests    24
##  6    BROW     chicks    20
##  7    DAMO      nests    20
##  8    PCHA      nests    20
##  9    PLEN      nests    20
## 10    BISC      nests    19
## # ... with 134 more rows
…
Missing data

library(reshape2)
nestCountMelt <- melt(myNestCount, id.vars=c('site_id', 'common_name'))

(nestCountBySiteAndSpecies <- nestCountMelt  %>%
    dcast(site_id + variable ~ common_name, sum) %>%
    group_by(site_id) %>%
    summarise(`adelie penguin`=sum(`adelie penguin`, na.rm=TRUE),
              `chinstrap penguin`=sum(`chinstrap penguin`, na.rm=TRUE),
              `gentoo penguin`=sum(`gentoo penguin`, na.rm=TRUE)) %>%
    mutate(total = `adelie penguin` + `chinstrap penguin` + `gentoo penguin`))

## # A tibble: 547 x 5
##    site_id `adelie penguin` `chinstrap penguin`
##     <fctr>            <dbl>               <dbl>
##  1    ACUN             8887                4000
##  2    ADAM               76                   0
##  3    ADAR          2383618                   0
##  4    AILS                0                6000
##  5    AITC                0               14275
##  6    AITK                0                3300
##  7    AKAR              106                   0
##  8    ALAS             1080                   0
##  9    ALCO                0                5721
## 10    ALMI                0                   0
## # ... with 537 more rows, and 2 more variables: `gentoo penguin` <dbl>,
## #   total <dbl>
…
(historicalData <- nestCountMelt %>% inner_join(nestCountByYear, by=c('common_name', 'variable')) %>%
     group_by(site_id, common_name, variable) %>%
     summarise(count = sum(value, na.rm=TRUE),
               countByYear = first(countByYear)) %>%
    mutate(ratio = count/countByYear) %>%
    arrange(desc(ratio)) %>%
    mutate(label=paste0(site_id, common_name)) %>%
    mutate(year=as.numeric(gsub('X', '', variable))))

## Source: local data frame [34,132 x 8]
## Groups: site_id, common_name [644]
## 
## # A tibble: 34,132 x 8
##    site_id       common_name variable count countByYear ratio
##     <fctr>             <chr>   <fctr> <dbl>       <dbl> <dbl>
##  1    BOWL    adelie penguin    X1976    60          60     1
##  2    BRUC chinstrap penguin    X1956  5000        5000     1
##  3    CARL chinstrap penguin    X1975     1           1     1
##  4    CVIK chinstrap penguin    X1965  8000        8000     1
##  5    DUND    gentoo penguin    X1895    40          40     1
##  6    ELPT    gentoo penguin    X1958   400         400     1
##  7    HALF chinstrap penguin    X1991  1747        1747     1
##  8    JOUB    gentoo penguin    X1975    54          54     1
##  9    LLAN chinstrap penguin    X1982   280         280     1
## 10    ORRO chinstrap penguin    X1967  1100        1100     1
## # ... with 34,122 more rows, and 2 more variables: label <chr>, year <dbl>
…
