…
```r
gentooObs %>% group_by(site_id, count_type) %>% count() %>% arrange(desc(n))
```

```
## Source: local data frame [144 x 3]
## Groups: site_id [105]
## 
## # A tibble: 144 x 3
##    site_id count_type     n
##     <fctr>     <fctr> <int>
##  1    JOUG      nests    39
##  2    LLAN      nests    39
##  3    NEKO      nests    36
##  4    ALMI      nests    25
##  5    BROW      nests    24
##  6    BROW     chicks    20
##  7    DAMO      nests    20
##  8    PCHA      nests    20
##  9    PLEN      nests    20
## 10    BISC      nests    19
## # ... with 134 more rows
```
…
